[gd_scene load_steps=4 format=2]

[ext_resource path="res://scripts/lives.gd" type="Script" id=1]
[ext_resource path="res://graphics/hud/life.png" type="Texture" id=2]
[ext_resource path="res://fonts/dynamic_font_smallest.tres" type="DynamicFont" id=3]

[node name="LifesLabel" type="Node2D" index="0"]

position = Vector2( -53, 3 )
script = ExtResource( 1 )

[node name="Life1" type="Sprite" parent="." index="0"]

texture = ExtResource( 2 )

[node name="Life2" type="Sprite" parent="." index="1"]

position = Vector2( 53, 0 )
texture = ExtResource( 2 )

[node name="Life3" type="Sprite" parent="." index="2"]

position = Vector2( 103, 0 )
texture = ExtResource( 2 )

[node name="LifeX" type="Sprite" parent="." index="3"]

visible = false
position = Vector2( 82.1079, 0 )
texture = ExtResource( 2 )

[node name="HowMany" type="Label" parent="." index="4"]

visible = false
anchor_left = 0.0
anchor_top = 0.0
anchor_right = 0.0
anchor_bottom = 0.0
margin_left = -67.0
margin_top = -23.0
margin_right = -19.0
margin_bottom = -2.0
rect_scale = Vector2( 2.5, 2.5 )
rect_pivot_offset = Vector2( 0, 0 )
rect_clip_content = false
mouse_filter = 2
mouse_default_cursor_shape = 0
size_flags_horizontal = 1
size_flags_vertical = 4
custom_fonts/font = ExtResource( 3 )
text = "4x"
align = 2
percent_visible = 1.0
lines_skipped = 0
max_lines_visible = -1
_sections_unfolded = [ "Rect", "custom_fonts" ]

[node name="Label" type="Label" parent="." index="5"]

anchor_left = 0.0
anchor_top = 0.0
anchor_right = 0.0
anchor_bottom = 0.0
margin_left = 26.0
margin_top = 27.0
margin_right = 66.0
margin_bottom = 48.0
rect_scale = Vector2( 1.5, 1.5 )
rect_pivot_offset = Vector2( 0, 0 )
rect_clip_content = false
mouse_filter = 2
mouse_default_cursor_shape = 0
size_flags_horizontal = 1
size_flags_vertical = 4
custom_fonts/font = ExtResource( 3 )
text = "Lifes"
percent_visible = 1.0
lines_skipped = 0
max_lines_visible = -1
_sections_unfolded = [ "Rect", "custom_fonts" ]

[node name="Zero" type="Label" parent="." index="6"]

visible = false
anchor_left = 0.0
anchor_top = 0.0
anchor_right = 0.0
anchor_bottom = 0.0
margin_left = 41.0
margin_top = -21.0
margin_right = 52.0
rect_scale = Vector2( 2.5, 2.5 )
rect_pivot_offset = Vector2( 0, 0 )
rect_clip_content = false
mouse_filter = 2
mouse_default_cursor_shape = 0
size_flags_horizontal = 1
size_flags_vertical = 4
custom_fonts/font = ExtResource( 3 )
text = "0"
percent_visible = 1.0
lines_skipped = 0
max_lines_visible = -1
_sections_unfolded = [ "Rect", "custom_fonts" ]


