[gd_scene load_steps=2 format=2]

[ext_resource path="res://fonts/dynamic_font_small.tres" type="DynamicFont" id=1]


[node name="Label" type="Label" index="0"]

anchor_left = 0.0
anchor_top = 0.0
anchor_right = 0.0
anchor_bottom = 0.0
margin_right = 522.0
margin_bottom = 56.0
rect_pivot_offset = Vector2( 0, 0 )
rect_clip_content = false
mouse_filter = 2
mouse_default_cursor_shape = 0
size_flags_horizontal = 3
size_flags_vertical = 0
custom_fonts/font = ExtResource( 1 )
custom_colors/font_color = Color( 1, 1, 0, 1 )
percent_visible = 1.0
lines_skipped = 0
max_lines_visible = -1
_sections_unfolded = [ "Rect", "Size Flags", "custom_colors", "custom_fonts" ]


