[gd_resource type="DynamicFont" load_steps=2 format=2]

[ext_resource path="res://fonts/VCR_OSD_MONO_1.001.ttf" type="DynamicFontData" id=1]

[resource]

size = 25
use_mipmaps = false
use_filter = true
font_data = ExtResource( 1 )
_sections_unfolded = [ "Font", "Settings" ]

